C:\Users\aksharag\git\qa-automation\JuniperNetProjectNew\src\utility\VerifyTargetForLinks.java
C:\Users\aksharag\git\qa-automation\JuniperNetProjectNew\src\scripts\ReadInputFile.java
C:\Users\aksharag\git\qa-automation\JuniperNetProjectNew\src\utility\VerifyHttpErrors.java
C:\Users\aksharag\git\qa-automation\JuniperNetProjectNew\src\fetchUrls\FetchAllJSONComponents.java
C:\Users\aksharag\git\qa-automation\JuniperNetProjectNew\src\fetchUrls\FetchAllUrls.java
C:\Users\aksharag\git\qa-automation\JuniperNetProjectNew\src\outputhtmlformat\CSSandJavaScript.java
C:\Users\aksharag\git\qa-automation\JuniperNetProjectNew\src\scripts\BaseTest.java
C:\Users\aksharag\git\qa-automation\JuniperNetProjectNew\src\scripts\FetchComponentsFromJSON.java
C:\Users\aksharag\git\qa-automation\JuniperNetProjectNew\src\generic\TestHeaderFooter.java
C:\Users\aksharag\git\qa-automation\JuniperNetProjectNew\src\generic\FetchHeaderAndFooterComponents.java
